Exploratory time series analysis – index
…
A tsibble is a tibble for time series!

The quarterly visitors to Australia are found in the tourism dataset.

library(fpp3)
tourism

# A tsibble: 24,320 x 5 [1Q]
# Key:       Region, State, Purpose [304]
   Quarter Region   State           Purpose  Trips
     <qtr> <chr>    <chr>           <chr>    <dbl>
 1 1998 Q1 Adelaide South Australia Business  135.
 2 1998 Q2 Adelaide South Australia Business  110.
 3 1998 Q3 Adelaide South Australia Business  166.
 4 1998 Q4 Adelaide South Australia Business  127.
 5 1999 Q1 Adelaide South Australia Business  137.
 6 1999 Q2 Adelaide South Australia Business  200.
 7 1999 Q3 Adelaide South Australia Business  169.
 8 1999 Q4 Adelaide South Australia Business  134.
 9 2000 Q1 Adelaide South Australia Business  154.
10 2000 Q2 Adelaide South Australia Business  169.
# ℹ 24,310 more rows
…
# A tibble: 24,320 × 5
   Quarter Region   State           Purpose  Trips
     <qtr> <chr>    <chr>           <chr>    <dbl>
 1 1998 Q1 Adelaide South Australia Business  135.
 2 1998 Q2 Adelaide South Australia Business  110.
 3 1998 Q3 Adelaide South Australia Business  166.
 4 1998 Q4 Adelaide South Australia Business  127.
 5 1999 Q1 Adelaide South Australia Business  137.
 6 1999 Q2 Adelaide South Australia Business  200.
 7 1999 Q3 Adelaide South Australia Business  169.
 8 1999 Q4 Adelaide South Australia Business  134.
 9 2000 Q1 Adelaide South Australia Business  154.
10 2000 Q2 Adelaide South Australia Business  169.
# ℹ 24,310 more rows
…
pedestrian

# A tibble: 66,037 × 5
   Sensor         Date_Time           Date        Time Count
   <chr>          <dttm>              <date>     <int> <int>
 1 Birrarung Marr 2015-01-01 00:00:00 2015-01-01     0  1630
 2 Birrarung Marr 2015-01-01 01:00:00 2015-01-01     1   826
 3 Birrarung Marr 2015-01-01 02:00:00 2015-01-01     2   567
 4 Birrarung Marr 2015-01-01 03:00:00 2015-01-01     3   264
 5 Birrarung Marr 2015-01-01 04:00:00 2015-01-01     4   139
 6 Birrarung Marr 2015-01-01 05:00:00 2015-01-01     5    77
 7 Birrarung Marr 2015-01-01 06:00:00 2015-01-01     6    44
 8 Birrarung Marr 2015-01-01 07:00:00 2015-01-01     7    56
 9 Birrarung Marr 2015-01-01 08:00:00 2015-01-01     8   113
10 Birrarung Marr 2015-01-01 09:00:00 2015-01-01     9   166
# ℹ 66,027 more rows
…
Our first tsibble

A tsibble is a time series tibble.

It is created with as_tsibble().

tourism |> 
  as_tsibble(
    key = c(Region, State, Purpose),
    index = Quarter
  )

# A tsibble: 24,320 x 5 [1Q]
# Key:       Region, State, Purpose [304]
   Quarter Region   State           Purpose  Trips
     <qtr> <chr>    <chr>           <chr>    <dbl>
 1 1998 Q1 Adelaide South Australia Business  135.
 2 1998 Q2 Adelaide South Australia Business  110.
 3 1998 Q3 Adelaide South Australia Business  166.
 4 1998 Q4 Adelaide South Australia Business  127.
 5 1999 Q1 Adelaide South Australia Business  137.
 6 1999 Q2 Adelaide South Australia Business  200.
 7 1999 Q3 Adelaide South Australia Business  169.
 8 1999 Q4 Adelaide South Australia Business  134.
 9 2000 Q1 Adelaide South Australia Business  154.
10 2000 Q2 Adelaide South Australia Business  169.
# ℹ 24,310 more rows
…
STL decomposition

Estimate STL decomposition with STL().

library(feasts)
dcmp <- tourism |> 
  summarise(Trips = sum(Trips)) |> 
  model(STL(Trips)) |> 
  components()
dcmp

# A dable: 80 x 7 [1Q]
# Key:     .model [1]
# :        Trips = trend + season_year + remainder
   .model     Quarter  Trips  trend season_year remainder season_adjust
   <chr>        <qtr>  <dbl>  <dbl>       <dbl>     <dbl>         <dbl>
 1 STL(Trips) 1998 Q1 23182. 21378.       1243.     561.         21939.
 2 STL(Trips) 1998 Q2 20323. 21168.       -346.    -498.         20670.
 3 STL(Trips) 1998 Q3 19827. 20992.       -739.    -426.         20566.
 4 STL(Trips) 1998 Q4 20830. 20893.       -159.      96.7        20989.
 5 STL(Trips) 1999 Q1 22087. 21079.       1244.    -236.         20843.
 6 STL(Trips) 1999 Q2 21458. 21019.       -343.     782.         21801.
 7 STL(Trips) 1999 Q3 19914. 20893.       -737.    -241.         20652.
 8 STL(Trips) 1999 Q4 20028. 20712.       -168.    -516.         20196.
 9 STL(Trips) 2000 Q1 22339. 20599.       1247.     494.         21093.
10 STL(Trips) 2000 Q2 19941. 20791.       -339.    -512.         20280.
# ℹ 70 more rows
…
STL decomposition

Access decomposition with components().

library(feasts)
dcmp <- tourism |> 
  summarise(Trips = sum(Trips)) |> 
  model(STL(Trips)) |> 
  components()
dcmp

# A dable: 80 x 7 [1Q]
# Key:     .model [1]
# :        Trips = trend + season_year + remainder
   .model     Quarter  Trips  trend season_year remainder season_adjust
   <chr>        <qtr>  <dbl>  <dbl>       <dbl>     <dbl>         <dbl>
 1 STL(Trips) 1998 Q1 23182. 21378.       1243.     561.         21939.
 2 STL(Trips) 1998 Q2 20323. 21168.       -346.    -498.         20670.
 3 STL(Trips) 1998 Q3 19827. 20992.       -739.    -426.         20566.
 4 STL(Trips) 1998 Q4 20830. 20893.       -159.      96.7        20989.
 5 STL(Trips) 1999 Q1 22087. 21079.       1244.    -236.         20843.
 6 STL(Trips) 1999 Q2 21458. 21019.       -343.     782.         21801.
 7 STL(Trips) 1999 Q3 19914. 20893.       -737.    -241.         20652.
 8 STL(Trips) 1999 Q4 20028. 20712.       -168.    -516.         20196.
 9 STL(Trips) 2000 Q1 22339. 20599.       1247.     494.         21093.
10 STL(Trips) 2000 Q2 19941. 20791.       -339.    -512.         20280.
# ℹ 70 more rows
…
Exploring many series

Most datasets contain many related time series identified by one or more keys.

For example, tourism contains 304 series.

tourism |> 
  distinct(Region, State, Purpose)

# A tibble: 304 × 3
   Region         State              Purpose 
   <chr>          <chr>              <chr>   
 1 Adelaide       South Australia    Business
 2 Adelaide       South Australia    Holiday 
 3 Adelaide       South Australia    Other   
 4 Adelaide       South Australia    Visiting
 5 Adelaide Hills South Australia    Business
 6 Adelaide Hills South Australia    Holiday 
 7 Adelaide Hills South Australia    Other   
 8 Adelaide Hills South Australia    Visiting
 9 Alice Springs  Northern Territory Business
10 Alice Springs  Northern Territory Holiday 
# ℹ 294 more rows
…
Time series features

Instead we can calculate features of the time series, which summarise patterns over time.

tourism |> 
  features(Trips, feat_stl)

# A tibble: 304 × 12
   Region State Purpose trend_strength seasonal_strength_year seasonal_peak_year
   <chr>  <chr> <chr>            <dbl>                  <dbl>              <dbl>
 1 Adela… Sout… Busine…          0.464                  0.407                  3
 2 Adela… Sout… Holiday          0.554                  0.619                  1
 3 Adela… Sout… Other            0.746                  0.202                  2
 4 Adela… Sout… Visiti…          0.435                  0.452                  1
 5 Adela… Sout… Busine…          0.464                  0.179                  3
 6 Adela… Sout… Holiday          0.528                  0.296                  2
 7 Adela… Sout… Other            0.593                  0.404                  2
 8 Adela… Sout… Visiti…          0.488                  0.254                  0
 9 Alice… Nort… Busine…          0.534                  0.251                  0
10 Alice… Nort… Holiday          0.381                  0.832                  3
# ℹ 294 more rows
# ℹ 6 more variables: seasonal_trough_year <dbl>, spikiness <dbl>,
#   linearity <dbl>, curvature <dbl>, stl_e_acf1 <dbl>, stl_e_acf10 <dbl>
…
